<?xml version="1.0" encoding="UTF-8" standalone="no"?>
<!-- Created with Inkscape (http://www.inkscape.org/) -->

<svg
   xmlns:dc="http://purl.org/dc/elements/1.1/"
   xmlns:cc="http://creativecommons.org/ns#"
   xmlns:rdf="http://www.w3.org/1999/02/22-rdf-syntax-ns#"
   xmlns:svg="http://www.w3.org/2000/svg"
   xmlns="http://www.w3.org/2000/svg"
   xmlns:sodipodi="http://sodipodi.sourceforge.net/DTD/sodipodi-0.dtd"
   xmlns:inkscape="http://www.inkscape.org/namespaces/inkscape"
   width="1200"
   height="250"
   id="svg2"
   version="1.1"
   inkscape:version="0.48.5 r10040"
   sodipodi:docname="asep.pdf">
  <defs
     id="defs4">
    <marker
       inkscape:stockid="Arrow2Lend"
       orient="auto"
       refY="0"
       refX="0"
       id="Arrow2Lend"
       style="overflow:visible">
      <path
         id="path3834"
         style="fill-rule:evenodd;stroke-width:0.625;stroke-linejoin:round"
         d="M 8.7185878,4.0337352 -2.2072895,0.01601326 8.7185884,-4.0017078 c -1.7454984,2.3720609 -1.7354408,5.6174519 -6e-7,8.035443 z"
         transform="matrix(-1.1,0,0,-1.1,-1.1,0)"
         inkscape:connector-curvature="0" />
    </marker>
    <marker
       inkscape:stockid="Arrow1Mend"
       orient="auto"
       refY="0"
       refX="0"
       id="Arrow1Mend"
       style="overflow:visible">
      <path
         id="path3822"
         d="M 0,0 5,-5 -12.5,0 5,5 0,0 z"
         style="fill-rule:evenodd;stroke:#000000;stroke-width:1pt"
         transform="matrix(-0.4,0,0,-0.4,-4,0)"
         inkscape:connector-curvature="0" />
    </marker>
    <marker
       inkscape:stockid="Arrow1Send"
       orient="auto"
       refY="0"
       refX="0"
       id="Arrow1Send"
       style="overflow:visible">
      <path
         id="path3828"
         d="M 0,0 5,-5 -12.5,0 5,5 0,0 z"
         style="fill-rule:evenodd;stroke:#000000;stroke-width:1pt"
         transform="matrix(-0.2,0,0,-0.2,-1.2,0)"
         inkscape:connector-curvature="0" />
    </marker>
    <marker
       inkscape:stockid="StopS"
       orient="auto"
       refY="0"
       refX="0"
       id="StopS"
       style="overflow:visible">
      <path
         id="path3988"
         d="M 0,5.65 0,-5.65"
         style="fill:none;stroke:#000000;stroke-width:1pt"
         transform="scale(0.2,0.2)"
         inkscape:connector-curvature="0" />
    </marker>
    <marker
       inkscape:stockid="Arrow1Lend"
       orient="auto"
       refY="0"
       refX="0"
       id="Arrow1Lend"
       style="overflow:visible">
      <path
         id="path3816"
         d="M 0,0 5,-5 -12.5,0 5,5 0,0 z"
         style="fill-rule:evenodd;stroke:#000000;stroke-width:1pt"
         transform="matrix(-0.8,0,0,-0.8,-10,0)"
         inkscape:connector-curvature="0" />
    </marker>
  </defs>
  <sodipodi:namedview
     id="base"
     pagecolor="#ffffff"
     bordercolor="#666666"
     borderopacity="1.0"
     inkscape:pageopacity="0.0"
     inkscape:pageshadow="2"
     inkscape:zoom="0.7"
     inkscape:cx="448.86191"
     inkscape:cy="348.72302"
     inkscape:document-units="px"
     inkscape:current-layer="layer1"
     showgrid="false"
     inkscape:window-width="1920"
     inkscape:window-height="1028"
     inkscape:window-x="0"
     inkscape:window-y="0"
     inkscape:window-maximized="1" />
  <metadata
     id="metadata7">
    <rdf:RDF>
      <cc:Work
         rdf:about="">
        <dc:format>image/svg+xml</dc:format>
        <dc:type
           rdf:resource="http://purl.org/dc/dcmitype/StillImage" />
        <dc:title></dc:title>
      </cc:Work>
    </rdf:RDF>
  </metadata>
  <g
     inkscape:label="Layer 1"
     inkscape:groupmode="layer"
     id="layer1"
     transform="translate(0,-802.36218)">
    <path
       style="fill:none;stroke:#000000;stroke-width:1.90330184;stroke-linecap:butt;stroke-linejoin:miter;stroke-miterlimit:4;stroke-opacity:1;stroke-dasharray:none"
       d="m 208.4063,1019.5268 c 87.71926,0 91.99824,0 91.99824,0"
       id="path2985"
       inkscape:connector-curvature="0" />
    <path
       inkscape:connector-curvature="0"
       id="path2987"
       d="m 439.32737,1019.5268 c 87.71925,0 91.99823,0 91.99823,0"
       style="fill:none;stroke:#000000;stroke-width:1.90330184;stroke-linecap:butt;stroke-linejoin:miter;stroke-miterlimit:4;stroke-opacity:1;stroke-dasharray:none" />
    <path
       style="fill:none;stroke:#000000;stroke-width:1.90330184;stroke-linecap:butt;stroke-linejoin:miter;stroke-miterlimit:4;stroke-opacity:1;stroke-dasharray:none"
       d="m 670.24838,1019.5268 c 87.71927,0 91.99824,0 91.99824,0"
       id="path2989"
       inkscape:connector-curvature="0" />
    <path
       inkscape:connector-curvature="0"
       id="path2991"
       d="m 901.16946,1019.5268 c 87.71933,0 91.99822,0 91.99822,0"
       style="fill:none;stroke:#000000;stroke-width:1.90330184;stroke-linecap:butt;stroke-linejoin:miter;stroke-miterlimit:4;stroke-opacity:1;stroke-dasharray:none" />
    <path
       style="fill:none;stroke:#000000;stroke-width:1.90330184;stroke-linecap:butt;stroke-linejoin:miter;stroke-miterlimit:4;stroke-opacity:1;stroke-dasharray:none"
       d="m 1016.6298,1019.5268 c 87.7194,0 91.9984,0 91.9984,0"
       id="path2993"
       inkscape:connector-curvature="0" />
    <path
       inkscape:connector-curvature="0"
       id="path2995"
       d="m 554.78786,1019.5268 c 87.71925,0 91.99823,0 91.99823,0"
       style="fill:none;stroke:#000000;stroke-width:1.90330184;stroke-linecap:butt;stroke-linejoin:miter;stroke-miterlimit:4;stroke-opacity:1;stroke-dasharray:none" />
    <path
       style="fill:none;stroke:#000000;stroke-width:1.90330184;stroke-linecap:butt;stroke-linejoin:miter;stroke-miterlimit:4;stroke-opacity:1;stroke-dasharray:none"
       d="m 92.945767,1019.5268 c 87.719253,0 91.998243,0 91.998243,0"
       id="path2997"
       inkscape:connector-curvature="0" />
    <path
       inkscape:connector-curvature="0"
       id="path2999"
       d="m 323.86681,1019.5268 c 87.71926,0 91.99823,0 91.99823,0"
       style="fill:none;stroke:#000000;stroke-width:1.90330184;stroke-linecap:butt;stroke-linejoin:miter;stroke-miterlimit:4;stroke-opacity:1;stroke-dasharray:none" />
    <path
       style="fill:none;stroke:#000000;stroke-width:1.90330184;stroke-linecap:butt;stroke-linejoin:miter;stroke-miterlimit:4;stroke-opacity:1;stroke-dasharray:none"
       d="m 785.70893,1019.5268 c 87.71925,0 91.99823,0 91.99823,0"
       id="path3001"
       inkscape:connector-curvature="0" />
    <path
       sodipodi:type="arc"
       style="fill:none;stroke:#000000;stroke-width:2;stroke-linejoin:round;stroke-miterlimit:4;stroke-opacity:1;stroke-dasharray:none"
       id="path3771"
       sodipodi:cx="327.28943"
       sodipodi:cy="267.41748"
       sodipodi:rx="27.779196"
       sodipodi:ry="27.779196"
       d="m 355.06862,267.41748 c 0,15.34203 -12.43717,27.7792 -27.77919,27.7792 -15.34203,0 -27.7792,-12.43717 -27.7792,-27.7792 0,-15.34203 12.43717,-27.7792 27.7792,-27.7792 15.34202,0 27.77919,12.43717 27.77919,27.7792 z"
       transform="matrix(1.1647245,0,0,1.1647245,-11.336109,665.79875)" />
    <path
       transform="matrix(1.1647245,0,0,1.1647245,335.04547,665.79875)"
       d="m 355.06862,267.41748 c 0,15.34203 -12.43717,27.7792 -27.77919,27.7792 -15.34203,0 -27.7792,-12.43717 -27.7792,-27.7792 0,-15.34203 12.43717,-27.7792 27.7792,-27.7792 15.34202,0 27.77919,12.43717 27.77919,27.7792 z"
       sodipodi:ry="27.779196"
       sodipodi:rx="27.779196"
       sodipodi:cy="267.41748"
       sodipodi:cx="327.28943"
       id="path3773"
       style="fill:none;stroke:#000000;stroke-width:2;stroke-linejoin:round;stroke-miterlimit:4;stroke-opacity:1;stroke-dasharray:none"
       sodipodi:type="arc" />
    <path
       sodipodi:type="arc"
       style="fill:none;stroke:#000000;stroke-width:2;stroke-linejoin:round;stroke-miterlimit:4;stroke-opacity:1;stroke-dasharray:none"
       id="path3775"
       sodipodi:cx="327.28943"
       sodipodi:cy="267.41748"
       sodipodi:rx="27.779196"
       sodipodi:ry="27.779196"
       d="m 355.06862,267.41748 c 0,15.34203 -12.43717,27.7792 -27.77919,27.7792 -15.34203,0 -27.7792,-12.43717 -27.7792,-27.7792 0,-15.34203 12.43717,-27.7792 27.7792,-27.7792 15.34202,0 27.77919,12.43717 27.77919,27.7792 z"
       transform="matrix(1.1647245,0,0,1.1647245,450.50601,664.97597)" />
    <path
       transform="matrix(1.1647245,0,0,1.1647245,681.42693,664.1532)"
       d="m 355.06862,267.41748 c 0,15.34203 -12.43717,27.7792 -27.77919,27.7792 -15.34203,0 -27.7792,-12.43717 -27.7792,-27.7792 0,-15.34203 12.43717,-27.7792 27.7792,-27.7792 15.34202,0 27.77919,12.43717 27.77919,27.7792 z"
       sodipodi:ry="27.779196"
       sodipodi:rx="27.779196"
       sodipodi:cy="267.41748"
       sodipodi:cx="327.28943"
       id="path3777"
       style="fill:none;stroke:#000000;stroke-width:2;stroke-linejoin:round;stroke-miterlimit:4;stroke-opacity:1;stroke-dasharray:none"
       sodipodi:type="arc" />
    <path
       style="fill:none;stroke:#000000;stroke-width:1px;stroke-linecap:butt;stroke-linejoin:miter;stroke-opacity:1;marker-end:url(#Arrow2Lend)"
       d="m 371.98186,926.13942 c 50.35715,-40.17857 102.14286,0 102.14286,0"
       id="path3799"
       inkscape:connector-curvature="0" />
    <path
       inkscape:connector-curvature="0"
       id="path5197"
       d="m 726.54541,926.13942 c 50.35715,-40.17857 102.14286,0 102.14286,0"
       style="fill:none;stroke:#000000;stroke-width:1px;stroke-linecap:butt;stroke-linejoin:miter;stroke-opacity:1;marker-end:url(#Arrow2Lend)" />
    <path
       style="fill:none;stroke:#000000;stroke-width:1px;stroke-linecap:butt;stroke-linejoin:miter;stroke-opacity:1;marker-end:url(#Arrow2Lend)"
       d="m 1089.3475,936.47928 c 23.5213,-59.97422 88.4583,-51.0714 88.4583,-51.0714"
       id="path5199"
       inkscape:connector-curvature="0" />
    <path
       inkscape:connector-curvature="0"
       id="path5201"
       d="m 18.494893,882.88892 c 63.699848,-9.61707 88.458277,51.07143 88.458277,51.07143"
       style="fill:none;stroke:#000000;stroke-width:1px;stroke-linecap:butt;stroke-linejoin:miter;stroke-opacity:1;marker-end:url(#Arrow2Lend)" />
    <text
       xml:space="preserve"
       style="font-size:16px;font-style:normal;font-variant:normal;font-weight:normal;font-stretch:normal;text-align:end;line-height:125%;letter-spacing:0px;word-spacing:0px;text-anchor:end;fill:#000000;fill-opacity:1;stroke:none;font-family:Liberation Sans;-inkscape-font-specification:Liberation Sans"
       x="67.680222"
       y="134.32988"
       id="text5222"
       sodipodi:linespacing="125%"
       transform="translate(0,652.36218)"><tspan
         sodipodi:role="line"
         id="tspan5224"
         x="67.680222"
         y="134.32988" /></text>
    <text
       xml:space="preserve"
       style="font-size:32px;font-style:italic;font-variant:normal;font-weight:normal;font-stretch:normal;text-align:end;line-height:125%;letter-spacing:0px;word-spacing:0px;text-anchor:end;fill:#000000;fill-opacity:1;stroke:none;font-family:Droid Serif;-inkscape-font-specification:Droid Serif Italic"
       x="71.873634"
       y="868.72144"
       id="text5226"
       sodipodi:linespacing="125%"><tspan
         sodipodi:role="line"
         id="tspan5234"
         x="71.873634"
         y="868.72144">α</tspan></text>
    <text
       xml:space="preserve"
       style="font-size:16px;font-style:normal;font-variant:normal;font-weight:normal;font-stretch:normal;text-align:end;line-height:125%;letter-spacing:0px;word-spacing:0px;text-anchor:end;fill:#000000;fill-opacity:1;stroke:none;font-family:Droid Serif;-inkscape-font-specification:Droid Serif"
       x="290"
       y="95.714287"
       id="text5236"
       sodipodi:linespacing="125%"
       transform="translate(0,652.36218)"><tspan
         sodipodi:role="line"
         id="tspan5238"
         x="290"
         y="95.714287"></tspan><tspan
         sodipodi:role="line"
         id="tspan5240"
         x="290"
         y="115.71429" /></text>
    <text
       xml:space="preserve"
       style="font-size:32px;font-style:italic;font-variant:normal;font-weight:normal;font-stretch:normal;text-align:end;line-height:125%;letter-spacing:0px;word-spacing:0px;text-anchor:end;fill:#000000;fill-opacity:1;stroke:none;font-family:Droid Serif;-inkscape-font-specification:Droid Serif Italic"
       x="1143.8451"
       y="868.49487"
       id="text5242"
       sodipodi:linespacing="125%"><tspan
         sodipodi:role="line"
         id="tspan5246"
         x="1143.8451"
         y="868.49487">β</tspan></text>
    <text
       xml:space="preserve"
       style="font-size:32px;font-style:italic;font-variant:normal;font-weight:normal;font-stretch:normal;text-align:end;line-height:125%;letter-spacing:0px;word-spacing:0px;text-anchor:end;fill:#000000;fill-opacity:1;stroke:none;font-family:Droid Serif;-inkscape-font-specification:Droid Serif Italic"
       x="433.39581"
       y="878.91541"
       id="text5248"
       sodipodi:linespacing="125%"><tspan
         sodipodi:role="line"
         id="tspan5250"
         x="433.39581"
         y="878.91541">p</tspan></text>
    <text
       sodipodi:linespacing="125%"
       id="text5252"
       y="880.93573"
       x="787.95935"
       style="font-size:32px;font-style:italic;font-variant:normal;font-weight:normal;font-stretch:normal;text-align:end;line-height:125%;letter-spacing:0px;word-spacing:0px;text-anchor:end;fill:#000000;fill-opacity:1;stroke:none;font-family:Droid Serif;-inkscape-font-specification:Droid Serif Italic"
       xml:space="preserve"><tspan
         y="880.93573"
         x="787.95935"
         id="tspan5254"
         sodipodi:role="line">p</tspan></text>
    <g
       id="g5260"
       transform="translate(134.85536,169.50003)"
       style="stroke-width:2;stroke-miterlimit:4;stroke-dasharray:none">
      <path
         inkscape:connector-curvature="0"
         id="path5256"
         d="m 620.69233,719.99924 c 33.84011,33.84011 36.87057,36.87057 36.87057,36.87057"
         style="fill:none;stroke:#000000;stroke-width:2;stroke-linecap:butt;stroke-linejoin:miter;stroke-miterlimit:4;stroke-opacity:1;stroke-dasharray:none" />
      <path
         style="fill:none;stroke:#000000;stroke-width:2;stroke-linecap:butt;stroke-linejoin:miter;stroke-miterlimit:4;stroke-opacity:1;stroke-dasharray:none"
         d="M 620.69233,756.86981 C 654.53244,723.0297 657.5629,719.99924 657.5629,719.99924"
         id="path5258"
         inkscape:connector-curvature="0" />
    </g>
  </g>
</svg>
