<?xml version="1.0" encoding="UTF-8" standalone="no"?>
<!-- Created with Inkscape (http://www.inkscape.org/) -->

<svg
   xmlns:dc="http://purl.org/dc/elements/1.1/"
   xmlns:cc="http://creativecommons.org/ns#"
   xmlns:rdf="http://www.w3.org/1999/02/22-rdf-syntax-ns#"
   xmlns:svg="http://www.w3.org/2000/svg"
   xmlns="http://www.w3.org/2000/svg"
   xmlns:sodipodi="http://sodipodi.sourceforge.net/DTD/sodipodi-0.dtd"
   xmlns:inkscape="http://www.inkscape.org/namespaces/inkscape"
   width="1200"
   height="400"
   id="svg2"
   version="1.1"
   inkscape:version="0.48.5 r10040"
   sodipodi:docname="motors.svg">
  <defs
     id="defs4">
    <marker
       inkscape:stockid="Arrow2Lend"
       orient="auto"
       refY="0.0"
       refX="0.0"
       id="Arrow2Lend"
       style="overflow:visible;">
      <path
         id="path3980"
         style="fill-rule:evenodd;stroke-width:0.62500000;stroke-linejoin:round;"
         d="M 8.7185878,4.0337352 L -2.2072895,0.016013256 L 8.7185884,-4.0017078 C 6.9730900,-1.6296469 6.9831476,1.6157441 8.7185878,4.0337352 z "
         transform="scale(1.1) rotate(180) translate(1,0)" />
    </marker>
    <marker
       inkscape:stockid="Arrow1Lend"
       orient="auto"
       refY="0.0"
       refX="0.0"
       id="Arrow1Lend"
       style="overflow:visible;">
      <path
         id="path3962"
         d="M 0.0,0.0 L 5.0,-5.0 L -12.5,0.0 L 5.0,5.0 L 0.0,0.0 z "
         style="fill-rule:evenodd;stroke:#000000;stroke-width:1.0pt;"
         transform="scale(0.8) rotate(180) translate(12.5,0)" />
    </marker>
  </defs>
  <sodipodi:namedview
     id="base"
     pagecolor="#ffffff"
     bordercolor="#666666"
     borderopacity="1.0"
     inkscape:pageopacity="0.0"
     inkscape:pageshadow="2"
     inkscape:zoom="1.3750125"
     inkscape:cx="592.82305"
     inkscape:cy="179.81594"
     inkscape:document-units="px"
     inkscape:current-layer="layer1"
     showgrid="false"
     inkscape:window-width="1920"
     inkscape:window-height="1028"
     inkscape:window-x="0"
     inkscape:window-y="0"
     inkscape:window-maximized="1" />
  <metadata
     id="metadata7">
    <rdf:RDF>
      <cc:Work
         rdf:about="">
        <dc:format>image/svg+xml</dc:format>
        <dc:type
           rdf:resource="http://purl.org/dc/dcmitype/StillImage" />
        <dc:title />
      </cc:Work>
    </rdf:RDF>
  </metadata>
  <g
     inkscape:label="Layer 1"
     inkscape:groupmode="layer"
     id="layer1"
     transform="translate(0,-652.36218)">
    <path
       style="fill:none;stroke:#000000;stroke-width:1.42622292;stroke-linecap:butt;stroke-linejoin:miter;stroke-miterlimit:4;stroke-opacity:1;stroke-dasharray:none"
       d="m 119.94287,1039.7737 94.82413,0"
       id="path2985"
       inkscape:connector-curvature="0" />
    <path
       inkscape:connector-curvature="0"
       id="path2987"
       d="m 227.79277,1039.7737 94.82411,0"
       style="fill:none;stroke:#000000;stroke-width:1.42622292;stroke-linecap:butt;stroke-linejoin:miter;stroke-miterlimit:4;stroke-opacity:1;stroke-dasharray:none" />
    <path
       style="fill:none;stroke:#000000;stroke-width:1.42622292;stroke-linecap:butt;stroke-linejoin:miter;stroke-miterlimit:4;stroke-opacity:1;stroke-dasharray:none"
       d="m 335.64268,1039.7737 94.82411,0"
       id="path2989"
       inkscape:connector-curvature="0" />
    <path
       inkscape:connector-curvature="0"
       id="path2991"
       d="m 443.4925,1039.7737 94.82411,0"
       style="fill:none;stroke:#000000;stroke-width:1.42622292;stroke-linecap:butt;stroke-linejoin:miter;stroke-miterlimit:4;stroke-opacity:1;stroke-dasharray:none" />
    <path
       style="fill:none;stroke:#000000;stroke-width:1.42622292;stroke-linecap:butt;stroke-linejoin:miter;stroke-miterlimit:4;stroke-opacity:1;stroke-dasharray:none"
       d="m 551.34236,1039.7737 94.82412,0"
       id="path2993"
       inkscape:connector-curvature="0" />
    <path
       inkscape:connector-curvature="0"
       id="path2995"
       d="m 659.19236,1039.7737 94.8241,0"
       style="fill:none;stroke:#000000;stroke-width:1.42622292;stroke-linecap:butt;stroke-linejoin:miter;stroke-miterlimit:4;stroke-opacity:1;stroke-dasharray:none" />
    <path
       style="fill:none;stroke:#000000;stroke-width:1.42622292;stroke-linecap:butt;stroke-linejoin:miter;stroke-miterlimit:4;stroke-opacity:1;stroke-dasharray:none"
       d="m 12.093013,1039.7737 94.824087,0"
       id="path2997"
       inkscape:connector-curvature="0" />
    <path
       inkscape:connector-curvature="0"
       id="path2999"
       d="m 767.04225,1039.7737 94.82404,0"
       style="fill:none;stroke:#000000;stroke-width:1.42622292;stroke-linecap:butt;stroke-linejoin:miter;stroke-miterlimit:4;stroke-opacity:1;stroke-dasharray:none" />
    <path
       inkscape:connector-curvature="0"
       id="path3003"
       d="m 874.89206,1039.7737 94.82415,0"
       style="fill:none;stroke:#000000;stroke-width:1.42622292;stroke-linecap:butt;stroke-linejoin:miter;stroke-miterlimit:4;stroke-opacity:1;stroke-dasharray:none" />
    <g
       id="g3869"
       transform="matrix(1.0369135,0,0,1,8.9578441,53.059355)">
      <path
         transform="translate(-198.15537,763.74824)"
         d="m 355.0166,207.37541 c 0,5.72468 -4.64077,10.36545 -10.36545,10.36545 -5.72468,0 -10.36545,-4.64077 -10.36545,-10.36545 0,-5.72468 4.64077,-10.36545 10.36545,-10.36545 5.72468,0 10.36545,4.64077 10.36545,10.36545 z"
         sodipodi:ry="10.365449"
         sodipodi:rx="10.365449"
         sodipodi:cy="207.37541"
         sodipodi:cx="344.65115"
         id="path3007"
         style="fill:none;stroke:#000000;stroke-width:1.5;stroke-linejoin:round;stroke-miterlimit:4;stroke-opacity:1;stroke-dasharray:none;stroke-dashoffset:4.3"
         sodipodi:type="arc" />
      <path
         sodipodi:type="arc"
         style="fill:none;stroke:#000000;stroke-width:1.5;stroke-linejoin:round;stroke-miterlimit:4;stroke-opacity:1;stroke-dasharray:none;stroke-dashoffset:4.3"
         id="path3009"
         sodipodi:cx="344.65115"
         sodipodi:cy="207.37541"
         sodipodi:rx="10.365449"
         sodipodi:ry="10.365449"
         d="m 355.0166,207.37541 c 0,5.72468 -4.64077,10.36545 -10.36545,10.36545 -5.72468,0 -10.36545,-4.64077 -10.36545,-10.36545 0,-5.72468 4.64077,-10.36545 10.36545,-10.36545 5.72468,0 10.36545,4.64077 10.36545,10.36545 z"
         transform="translate(-198.15537,763.74824)" />
      <path
         sodipodi:type="arc"
         style="fill:none;stroke:#000000;stroke-width:1.5;stroke-linejoin:round;stroke-miterlimit:4;stroke-opacity:1;stroke-dasharray:none;stroke-dashoffset:4.3"
         id="path3013"
         sodipodi:cx="344.65115"
         sodipodi:cy="207.37541"
         sodipodi:rx="10.365449"
         sodipodi:ry="10.365449"
         d="m 355.0166,207.37541 c 0,5.72468 -4.64077,10.36545 -10.36545,10.36545 -5.72468,0 -10.36545,-4.64077 -10.36545,-10.36545 0,-5.72468 4.64077,-10.36545 10.36545,-10.36545 5.72468,0 10.36545,4.64077 10.36545,10.36545 z"
         transform="translate(-155.82979,763.74824)" />
      <path
         transform="translate(-155.82979,763.74824)"
         d="m 355.0166,207.37541 c 0,5.72468 -4.64077,10.36545 -10.36545,10.36545 -5.72468,0 -10.36545,-4.64077 -10.36545,-10.36545 0,-5.72468 4.64077,-10.36545 10.36545,-10.36545 5.72468,0 10.36545,4.64077 10.36545,10.36545 z"
         sodipodi:ry="10.365449"
         sodipodi:rx="10.365449"
         sodipodi:cy="207.37541"
         sodipodi:cx="344.65115"
         id="path3015"
         style="fill:none;stroke:#000000;stroke-width:1.5;stroke-linejoin:round;stroke-miterlimit:4;stroke-opacity:1;stroke-dasharray:none;stroke-dashoffset:4.3"
         sodipodi:type="arc" />
      <path
         transform="translate(-239.18526,763.74824)"
         d="m 423.25581,113.22259 c 0,21.46754 -17.40289,38.87043 -38.87043,38.87043 -21.46755,0 -38.87043,-17.40289 -38.87043,-38.87043 0,-21.467548 17.40288,-38.870432 38.87043,-38.870432 21.46754,0 38.87043,17.402884 38.87043,38.870432 z"
         sodipodi:ry="38.87043"
         sodipodi:rx="38.87043"
         sodipodi:cy="113.22259"
         sodipodi:cx="384.38538"
         id="path3017"
         style="fill:none;stroke:#000000;stroke-width:1.5;stroke-linejoin:round;stroke-miterlimit:4;stroke-opacity:1;stroke-dasharray:none;stroke-dashoffset:4.3"
         sodipodi:type="arc" />
      <path
         sodipodi:nodetypes="cc"
         inkscape:connector-curvature="0"
         id="path3019"
         d="m 151.88041,915.74901 16.30399,38.35644"
         style="fill:none;stroke:#000000;stroke-width:1.5;stroke-linecap:butt;stroke-linejoin:miter;stroke-miterlimit:4;stroke-opacity:1;stroke-dasharray:none" />
      <path
         inkscape:connector-curvature="0"
         id="path3021"
         d="m 167.70779,953.02572 c 0,0 -3.05395,12.13945 -12.13945,12.13945"
         style="fill:none;stroke:#000000;stroke-width:1.5;stroke-linecap:butt;stroke-linejoin:miter;stroke-miterlimit:4;stroke-opacity:1;stroke-dasharray:none" />
      <path
         inkscape:connector-curvature="0"
         id="path3023"
         d="m 167.86048,953.17842 c 0,0 3.66474,12.13945 12.13945,12.13945"
         style="fill:none;stroke:#000000;stroke-width:1.5;stroke-linecap:butt;stroke-linejoin:miter;stroke-miterlimit:4;stroke-opacity:1;stroke-dasharray:none" />
    </g>
    <path
       style="fill:none;stroke:#000000;stroke-width:1.42622292;stroke-linecap:butt;stroke-linejoin:miter;stroke-miterlimit:4;stroke-opacity:1;stroke-dasharray:none"
       d="m 982.74194,1039.7737 94.82416,0"
       id="path3803"
       inkscape:connector-curvature="0" />
    <path
       inkscape:connector-curvature="0"
       id="path3805"
       d="m 1090.5918,1039.7737 94.8242,0"
       style="fill:none;stroke:#000000;stroke-width:1.42622292;stroke-linecap:butt;stroke-linejoin:miter;stroke-miterlimit:4;stroke-opacity:1;stroke-dasharray:none" />
    <g
       transform="matrix(1.0369135,0,0,1,224.65764,-41.002291)"
       id="g3879">
      <path
         sodipodi:type="arc"
         style="fill:none;stroke:#000000;stroke-width:1.5;stroke-linejoin:round;stroke-miterlimit:4;stroke-opacity:1;stroke-dasharray:none;stroke-dashoffset:4.3"
         id="path3881"
         sodipodi:cx="344.65115"
         sodipodi:cy="207.37541"
         sodipodi:rx="10.365449"
         sodipodi:ry="10.365449"
         d="m 355.0166,207.37541 c 0,5.72468 -4.64077,10.36545 -10.36545,10.36545 -5.72468,0 -10.36545,-4.64077 -10.36545,-10.36545 0,-5.72468 4.64077,-10.36545 10.36545,-10.36545 5.72468,0 10.36545,4.64077 10.36545,10.36545 z"
         transform="translate(-198.15537,763.74824)" />
      <path
         transform="translate(-198.15537,763.74824)"
         d="m 355.0166,207.37541 c 0,5.72468 -4.64077,10.36545 -10.36545,10.36545 -5.72468,0 -10.36545,-4.64077 -10.36545,-10.36545 0,-5.72468 4.64077,-10.36545 10.36545,-10.36545 5.72468,0 10.36545,4.64077 10.36545,10.36545 z"
         sodipodi:ry="10.365449"
         sodipodi:rx="10.365449"
         sodipodi:cy="207.37541"
         sodipodi:cx="344.65115"
         id="path3883"
         style="fill:none;stroke:#000000;stroke-width:1.5;stroke-linejoin:round;stroke-miterlimit:4;stroke-opacity:1;stroke-dasharray:none;stroke-dashoffset:4.3"
         sodipodi:type="arc" />
      <path
         transform="translate(-155.82979,763.74824)"
         d="m 355.0166,207.37541 c 0,5.72468 -4.64077,10.36545 -10.36545,10.36545 -5.72468,0 -10.36545,-4.64077 -10.36545,-10.36545 0,-5.72468 4.64077,-10.36545 10.36545,-10.36545 5.72468,0 10.36545,4.64077 10.36545,10.36545 z"
         sodipodi:ry="10.365449"
         sodipodi:rx="10.365449"
         sodipodi:cy="207.37541"
         sodipodi:cx="344.65115"
         id="path3885"
         style="fill:none;stroke:#000000;stroke-width:1.5;stroke-linejoin:round;stroke-miterlimit:4;stroke-opacity:1;stroke-dasharray:none;stroke-dashoffset:4.3"
         sodipodi:type="arc" />
      <path
         sodipodi:type="arc"
         style="fill:none;stroke:#000000;stroke-width:1.5;stroke-linejoin:round;stroke-miterlimit:4;stroke-opacity:1;stroke-dasharray:none;stroke-dashoffset:4.3"
         id="path3887"
         sodipodi:cx="344.65115"
         sodipodi:cy="207.37541"
         sodipodi:rx="10.365449"
         sodipodi:ry="10.365449"
         d="m 355.0166,207.37541 c 0,5.72468 -4.64077,10.36545 -10.36545,10.36545 -5.72468,0 -10.36545,-4.64077 -10.36545,-10.36545 0,-5.72468 4.64077,-10.36545 10.36545,-10.36545 5.72468,0 10.36545,4.64077 10.36545,10.36545 z"
         transform="translate(-155.82979,763.74824)" />
      <path
         sodipodi:type="arc"
         style="fill:none;stroke:#000000;stroke-width:1.5;stroke-linejoin:round;stroke-miterlimit:4;stroke-opacity:1;stroke-dasharray:none;stroke-dashoffset:4.3"
         id="path3889"
         sodipodi:cx="384.38538"
         sodipodi:cy="113.22259"
         sodipodi:rx="38.87043"
         sodipodi:ry="38.87043"
         d="m 423.25581,113.22259 c 0,21.46754 -17.40289,38.87043 -38.87043,38.87043 -21.46755,0 -38.87043,-17.40289 -38.87043,-38.87043 0,-21.467548 17.40288,-38.870432 38.87043,-38.870432 21.46754,0 38.87043,17.402884 38.87043,38.870432 z"
         transform="translate(-239.18526,763.74824)" />
      <path
         style="fill:none;stroke:#000000;stroke-width:1.5;stroke-linecap:butt;stroke-linejoin:miter;stroke-miterlimit:4;stroke-opacity:1;stroke-dasharray:none"
         d="m 151.88041,915.74901 16.30399,38.35644"
         id="path3891"
         inkscape:connector-curvature="0"
         sodipodi:nodetypes="cc" />
      <path
         style="fill:none;stroke:#000000;stroke-width:1.5;stroke-linecap:butt;stroke-linejoin:miter;stroke-miterlimit:4;stroke-opacity:1;stroke-dasharray:none"
         d="m 167.70779,953.02572 c 0,0 -3.05395,12.13945 -12.13945,12.13945"
         id="path3893"
         inkscape:connector-curvature="0" />
      <path
         style="fill:none;stroke:#000000;stroke-width:1.5;stroke-linecap:butt;stroke-linejoin:miter;stroke-miterlimit:4;stroke-opacity:1;stroke-dasharray:none"
         d="m 167.86048,953.17842 c 0,0 3.66474,12.13945 12.13945,12.13945"
         id="path3895"
         inkscape:connector-curvature="0" />
    </g>
    <g
       id="g3897"
       transform="matrix(1.0369135,0,0,1,656.05718,53.059355)">
      <path
         transform="translate(-198.15537,763.74824)"
         d="m 355.0166,207.37541 c 0,5.72468 -4.64077,10.36545 -10.36545,10.36545 -5.72468,0 -10.36545,-4.64077 -10.36545,-10.36545 0,-5.72468 4.64077,-10.36545 10.36545,-10.36545 5.72468,0 10.36545,4.64077 10.36545,10.36545 z"
         sodipodi:ry="10.365449"
         sodipodi:rx="10.365449"
         sodipodi:cy="207.37541"
         sodipodi:cx="344.65115"
         id="path3899"
         style="fill:none;stroke:#000000;stroke-width:1.5;stroke-linejoin:round;stroke-miterlimit:4;stroke-opacity:1;stroke-dasharray:none;stroke-dashoffset:4.3"
         sodipodi:type="arc" />
      <path
         sodipodi:type="arc"
         style="fill:none;stroke:#000000;stroke-width:1.5;stroke-linejoin:round;stroke-miterlimit:4;stroke-opacity:1;stroke-dasharray:none;stroke-dashoffset:4.3"
         id="path3901"
         sodipodi:cx="344.65115"
         sodipodi:cy="207.37541"
         sodipodi:rx="10.365449"
         sodipodi:ry="10.365449"
         d="m 355.0166,207.37541 c 0,5.72468 -4.64077,10.36545 -10.36545,10.36545 -5.72468,0 -10.36545,-4.64077 -10.36545,-10.36545 0,-5.72468 4.64077,-10.36545 10.36545,-10.36545 5.72468,0 10.36545,4.64077 10.36545,10.36545 z"
         transform="translate(-198.15537,763.74824)" />
      <path
         sodipodi:type="arc"
         style="fill:none;stroke:#000000;stroke-width:1.5;stroke-linejoin:round;stroke-miterlimit:4;stroke-opacity:1;stroke-dasharray:none;stroke-dashoffset:4.3"
         id="path3903"
         sodipodi:cx="344.65115"
         sodipodi:cy="207.37541"
         sodipodi:rx="10.365449"
         sodipodi:ry="10.365449"
         d="m 355.0166,207.37541 c 0,5.72468 -4.64077,10.36545 -10.36545,10.36545 -5.72468,0 -10.36545,-4.64077 -10.36545,-10.36545 0,-5.72468 4.64077,-10.36545 10.36545,-10.36545 5.72468,0 10.36545,4.64077 10.36545,10.36545 z"
         transform="translate(-155.82979,763.74824)" />
      <path
         transform="translate(-155.82979,763.74824)"
         d="m 355.0166,207.37541 c 0,5.72468 -4.64077,10.36545 -10.36545,10.36545 -5.72468,0 -10.36545,-4.64077 -10.36545,-10.36545 0,-5.72468 4.64077,-10.36545 10.36545,-10.36545 5.72468,0 10.36545,4.64077 10.36545,10.36545 z"
         sodipodi:ry="10.365449"
         sodipodi:rx="10.365449"
         sodipodi:cy="207.37541"
         sodipodi:cx="344.65115"
         id="path3905"
         style="fill:none;stroke:#000000;stroke-width:1.5;stroke-linejoin:round;stroke-miterlimit:4;stroke-opacity:1;stroke-dasharray:none;stroke-dashoffset:4.3"
         sodipodi:type="arc" />
      <path
         transform="translate(-239.18526,763.74824)"
         d="m 423.25581,113.22259 c 0,21.46754 -17.40289,38.87043 -38.87043,38.87043 -21.46755,0 -38.87043,-17.40289 -38.87043,-38.87043 0,-21.467548 17.40288,-38.870432 38.87043,-38.870432 21.46754,0 38.87043,17.402884 38.87043,38.870432 z"
         sodipodi:ry="38.87043"
         sodipodi:rx="38.87043"
         sodipodi:cy="113.22259"
         sodipodi:cx="384.38538"
         id="path3907"
         style="fill:none;stroke:#000000;stroke-width:1.5;stroke-linejoin:round;stroke-miterlimit:4;stroke-opacity:1;stroke-dasharray:none;stroke-dashoffset:4.3"
         sodipodi:type="arc" />
      <path
         sodipodi:nodetypes="cc"
         inkscape:connector-curvature="0"
         id="path3909"
         d="m 151.88041,915.74901 16.30399,38.35644"
         style="fill:none;stroke:#000000;stroke-width:1.5;stroke-linecap:butt;stroke-linejoin:miter;stroke-miterlimit:4;stroke-opacity:1;stroke-dasharray:none" />
      <path
         inkscape:connector-curvature="0"
         id="path3911"
         d="m 167.70779,953.02572 c 0,0 -3.05395,12.13945 -12.13945,12.13945"
         style="fill:none;stroke:#000000;stroke-width:1.5;stroke-linecap:butt;stroke-linejoin:miter;stroke-miterlimit:4;stroke-opacity:1;stroke-dasharray:none" />
      <path
         inkscape:connector-curvature="0"
         id="path3913"
         d="m 167.86048,953.17842 c 0,0 3.66474,12.13945 12.13945,12.13945"
         style="fill:none;stroke:#000000;stroke-width:1.5;stroke-linecap:butt;stroke-linejoin:miter;stroke-miterlimit:4;stroke-opacity:1;stroke-dasharray:none" />
    </g>
    <g
       transform="matrix(1.0369135,0,0,1,871.75693,53.059355)"
       id="g3915">
      <path
         sodipodi:type="arc"
         style="fill:none;stroke:#000000;stroke-width:1.5;stroke-linejoin:round;stroke-miterlimit:4;stroke-opacity:1;stroke-dasharray:none;stroke-dashoffset:4.3"
         id="path3917"
         sodipodi:cx="344.65115"
         sodipodi:cy="207.37541"
         sodipodi:rx="10.365449"
         sodipodi:ry="10.365449"
         d="m 355.0166,207.37541 c 0,5.72468 -4.64077,10.36545 -10.36545,10.36545 -5.72468,0 -10.36545,-4.64077 -10.36545,-10.36545 0,-5.72468 4.64077,-10.36545 10.36545,-10.36545 5.72468,0 10.36545,4.64077 10.36545,10.36545 z"
         transform="translate(-198.15537,763.74824)" />
      <path
         transform="translate(-198.15537,763.74824)"
         d="m 355.0166,207.37541 c 0,5.72468 -4.64077,10.36545 -10.36545,10.36545 -5.72468,0 -10.36545,-4.64077 -10.36545,-10.36545 0,-5.72468 4.64077,-10.36545 10.36545,-10.36545 5.72468,0 10.36545,4.64077 10.36545,10.36545 z"
         sodipodi:ry="10.365449"
         sodipodi:rx="10.365449"
         sodipodi:cy="207.37541"
         sodipodi:cx="344.65115"
         id="path3919"
         style="fill:none;stroke:#000000;stroke-width:1.5;stroke-linejoin:round;stroke-miterlimit:4;stroke-opacity:1;stroke-dasharray:none;stroke-dashoffset:4.3"
         sodipodi:type="arc" />
      <path
         transform="translate(-155.82979,763.74824)"
         d="m 355.0166,207.37541 c 0,5.72468 -4.64077,10.36545 -10.36545,10.36545 -5.72468,0 -10.36545,-4.64077 -10.36545,-10.36545 0,-5.72468 4.64077,-10.36545 10.36545,-10.36545 5.72468,0 10.36545,4.64077 10.36545,10.36545 z"
         sodipodi:ry="10.365449"
         sodipodi:rx="10.365449"
         sodipodi:cy="207.37541"
         sodipodi:cx="344.65115"
         id="path3921"
         style="fill:none;stroke:#000000;stroke-width:1.5;stroke-linejoin:round;stroke-miterlimit:4;stroke-opacity:1;stroke-dasharray:none;stroke-dashoffset:4.3"
         sodipodi:type="arc" />
      <path
         sodipodi:type="arc"
         style="fill:none;stroke:#000000;stroke-width:1.5;stroke-linejoin:round;stroke-miterlimit:4;stroke-opacity:1;stroke-dasharray:none;stroke-dashoffset:4.3"
         id="path3923"
         sodipodi:cx="344.65115"
         sodipodi:cy="207.37541"
         sodipodi:rx="10.365449"
         sodipodi:ry="10.365449"
         d="m 355.0166,207.37541 c 0,5.72468 -4.64077,10.36545 -10.36545,10.36545 -5.72468,0 -10.36545,-4.64077 -10.36545,-10.36545 0,-5.72468 4.64077,-10.36545 10.36545,-10.36545 5.72468,0 10.36545,4.64077 10.36545,10.36545 z"
         transform="translate(-155.82979,763.74824)" />
      <path
         sodipodi:type="arc"
         style="fill:none;stroke:#000000;stroke-width:1.5;stroke-linejoin:round;stroke-miterlimit:4;stroke-opacity:1;stroke-dasharray:none;stroke-dashoffset:4.3"
         id="path3925"
         sodipodi:cx="384.38538"
         sodipodi:cy="113.22259"
         sodipodi:rx="38.87043"
         sodipodi:ry="38.87043"
         d="m 423.25581,113.22259 c 0,21.46754 -17.40289,38.87043 -38.87043,38.87043 -21.46755,0 -38.87043,-17.40289 -38.87043,-38.87043 0,-21.467548 17.40288,-38.870432 38.87043,-38.870432 21.46754,0 38.87043,17.402884 38.87043,38.870432 z"
         transform="translate(-239.18526,763.74824)" />
      <path
         style="fill:none;stroke:#000000;stroke-width:1.5;stroke-linecap:butt;stroke-linejoin:miter;stroke-miterlimit:4;stroke-opacity:1;stroke-dasharray:none"
         d="m 151.88041,915.74901 16.30399,38.35644"
         id="path3927"
         inkscape:connector-curvature="0"
         sodipodi:nodetypes="cc" />
      <path
         style="fill:none;stroke:#000000;stroke-width:1.5;stroke-linecap:butt;stroke-linejoin:miter;stroke-miterlimit:4;stroke-opacity:1;stroke-dasharray:none"
         d="m 167.70779,953.02572 c 0,0 -3.05395,12.13945 -12.13945,12.13945"
         id="path3929"
         inkscape:connector-curvature="0" />
      <path
         style="fill:none;stroke:#000000;stroke-width:1.5;stroke-linecap:butt;stroke-linejoin:miter;stroke-miterlimit:4;stroke-opacity:1;stroke-dasharray:none"
         d="m 167.86048,953.17842 c 0,0 3.66474,12.13945 12.13945,12.13945"
         id="path3931"
         inkscape:connector-curvature="0" />
    </g>
    <g
       id="g3933"
       transform="matrix(1.0369135,0,0,1,979.60681,53.059355)">
      <path
         transform="translate(-198.15537,763.74824)"
         d="m 355.0166,207.37541 c 0,5.72468 -4.64077,10.36545 -10.36545,10.36545 -5.72468,0 -10.36545,-4.64077 -10.36545,-10.36545 0,-5.72468 4.64077,-10.36545 10.36545,-10.36545 5.72468,0 10.36545,4.64077 10.36545,10.36545 z"
         sodipodi:ry="10.365449"
         sodipodi:rx="10.365449"
         sodipodi:cy="207.37541"
         sodipodi:cx="344.65115"
         id="path3935"
         style="fill:none;stroke:#000000;stroke-width:1.5;stroke-linejoin:round;stroke-miterlimit:4;stroke-opacity:1;stroke-dasharray:none;stroke-dashoffset:4.3"
         sodipodi:type="arc" />
      <path
         sodipodi:type="arc"
         style="fill:none;stroke:#000000;stroke-width:1.5;stroke-linejoin:round;stroke-miterlimit:4;stroke-opacity:1;stroke-dasharray:none;stroke-dashoffset:4.3"
         id="path3937"
         sodipodi:cx="344.65115"
         sodipodi:cy="207.37541"
         sodipodi:rx="10.365449"
         sodipodi:ry="10.365449"
         d="m 355.0166,207.37541 c 0,5.72468 -4.64077,10.36545 -10.36545,10.36545 -5.72468,0 -10.36545,-4.64077 -10.36545,-10.36545 0,-5.72468 4.64077,-10.36545 10.36545,-10.36545 5.72468,0 10.36545,4.64077 10.36545,10.36545 z"
         transform="translate(-198.15537,763.74824)" />
      <path
         sodipodi:type="arc"
         style="fill:none;stroke:#000000;stroke-width:1.5;stroke-linejoin:round;stroke-miterlimit:4;stroke-opacity:1;stroke-dasharray:none;stroke-dashoffset:4.3"
         id="path3939"
         sodipodi:cx="344.65115"
         sodipodi:cy="207.37541"
         sodipodi:rx="10.365449"
         sodipodi:ry="10.365449"
         d="m 355.0166,207.37541 c 0,5.72468 -4.64077,10.36545 -10.36545,10.36545 -5.72468,0 -10.36545,-4.64077 -10.36545,-10.36545 0,-5.72468 4.64077,-10.36545 10.36545,-10.36545 5.72468,0 10.36545,4.64077 10.36545,10.36545 z"
         transform="translate(-155.82979,763.74824)" />
      <path
         transform="translate(-155.82979,763.74824)"
         d="m 355.0166,207.37541 c 0,5.72468 -4.64077,10.36545 -10.36545,10.36545 -5.72468,0 -10.36545,-4.64077 -10.36545,-10.36545 0,-5.72468 4.64077,-10.36545 10.36545,-10.36545 5.72468,0 10.36545,4.64077 10.36545,10.36545 z"
         sodipodi:ry="10.365449"
         sodipodi:rx="10.365449"
         sodipodi:cy="207.37541"
         sodipodi:cx="344.65115"
         id="path3941"
         style="fill:none;stroke:#000000;stroke-width:1.5;stroke-linejoin:round;stroke-miterlimit:4;stroke-opacity:1;stroke-dasharray:none;stroke-dashoffset:4.3"
         sodipodi:type="arc" />
      <path
         transform="translate(-239.18526,763.74824)"
         d="m 423.25581,113.22259 c 0,21.46754 -17.40289,38.87043 -38.87043,38.87043 -21.46755,0 -38.87043,-17.40289 -38.87043,-38.87043 0,-21.467548 17.40288,-38.870432 38.87043,-38.870432 21.46754,0 38.87043,17.402884 38.87043,38.870432 z"
         sodipodi:ry="38.87043"
         sodipodi:rx="38.87043"
         sodipodi:cy="113.22259"
         sodipodi:cx="384.38538"
         id="path3943"
         style="fill:none;stroke:#000000;stroke-width:1.5;stroke-linejoin:round;stroke-miterlimit:4;stroke-opacity:1;stroke-dasharray:none;stroke-dashoffset:4.3"
         sodipodi:type="arc" />
      <path
         sodipodi:nodetypes="cc"
         inkscape:connector-curvature="0"
         id="path3945"
         d="m 151.88041,915.74901 16.30399,38.35644"
         style="fill:none;stroke:#000000;stroke-width:1.5;stroke-linecap:butt;stroke-linejoin:miter;stroke-miterlimit:4;stroke-opacity:1;stroke-dasharray:none" />
      <path
         inkscape:connector-curvature="0"
         id="path3947"
         d="m 167.70779,953.02572 c 0,0 -3.05395,12.13945 -12.13945,12.13945"
         style="fill:none;stroke:#000000;stroke-width:1.5;stroke-linecap:butt;stroke-linejoin:miter;stroke-miterlimit:4;stroke-opacity:1;stroke-dasharray:none" />
      <path
         inkscape:connector-curvature="0"
         id="path3949"
         d="m 167.86048,953.17842 c 0,0 3.66474,12.13945 12.13945,12.13945"
         style="fill:none;stroke:#000000;stroke-width:1.5;stroke-linecap:butt;stroke-linejoin:miter;stroke-miterlimit:4;stroke-opacity:1;stroke-dasharray:none" />
    </g>
    <path
       style="fill:none;stroke:#000000;stroke-width:1px;stroke-linecap:butt;stroke-linejoin:miter;stroke-opacity:1"
       d="M 380.30508,788.71052 450.76296,685.88823 485.5451,829.13054 631.55677,811.71095 504.51247,712.76299 701.18682,665.12138 684.64155,808.93106 737.83422,723.75721 886.86695,666.34295 761.04423,794.60884 905.19064,761.62618 808.32805,882.14341"
       id="path3951"
       inkscape:connector-curvature="0"
       sodipodi:nodetypes="cccccccccccc" />
    <path
       style="fill:none;stroke:#000000;stroke-width:1.5;stroke-linecap:butt;stroke-linejoin:miter;stroke-opacity:1;marker-end:url(#Arrow2Lend);stroke-miterlimit:4;stroke-dasharray:none"
       d="m 338.37761,983.95372 0,-76.95955"
       id="path3953"
       inkscape:connector-curvature="0" />
    <path
       inkscape:connector-curvature="0"
       id="path4399"
       d="m 754.93633,906.99417 0,76.95955"
       style="fill:none;stroke:#000000;stroke-width:1.5;stroke-linecap:butt;stroke-linejoin:miter;stroke-opacity:1;marker-end:url(#Arrow2Lend);stroke-miterlimit:4;stroke-dasharray:none" />
    <path
       style="fill:none;stroke:#000000;stroke-width:1.5;stroke-linecap:butt;stroke-linejoin:miter;stroke-opacity:1;marker-start:none;marker-mid:none;marker-end:url(#Arrow2Lend);stroke-miterlimit:4;stroke-dasharray:none"
       d="m 168.00664,865.78411 c 0,0 44.91695,-39.73422 83.78738,-0.86379"
       id="path4401"
       inkscape:connector-curvature="0" />
    <path
       inkscape:connector-curvature="0"
       id="path5495"
       d="m 154.61794,865.78411 c 0,0 -44.91695,-39.73422 -83.787376,-0.86379"
       style="fill:none;stroke:#000000;stroke-width:1.5;stroke-linecap:butt;stroke-linejoin:miter;stroke-opacity:1;marker-start:none;marker-mid:none;marker-end:url(#Arrow2Lend);stroke-miterlimit:4;stroke-dasharray:none" />
    <text
       xml:space="preserve"
       style="font-size:32px;font-style:italic;font-variant:normal;font-weight:normal;font-stretch:normal;text-align:end;line-height:125%;letter-spacing:0px;word-spacing:0px;text-anchor:end;fill:#000000;fill-opacity:1;stroke:none;font-family:Droid Serif;-inkscape-font-specification:Droid Serif Italic"
       x="219.99998"
       y="828.64124"
       id="text5516"
       sodipodi:linespacing="125%"><tspan
         sodipodi:role="line"
         id="tspan5518"
         x="219.99998"
         y="828.64124">a</tspan></text>
    <text
       xml:space="preserve"
       style="font-size:32px;font-style:italic;font-variant:normal;font-weight:normal;font-stretch:normal;text-align:end;line-height:125%;letter-spacing:0px;word-spacing:0px;text-anchor:end;fill:#000000;fill-opacity:1;stroke:none;font-family:Droid Serif;-inkscape-font-specification:Droid Serif Italic"
       x="127.14178"
       y="829.50507"
       id="text5520"
       sodipodi:linespacing="125%"><tspan
         sodipodi:role="line"
         id="tspan5522"
         x="127.14178"
         y="829.50507">b</tspan></text>
    <text
       xml:space="preserve"
       style="font-size:32px;font-style:italic;font-variant:normal;font-weight:normal;font-stretch:normal;text-align:end;line-height:125%;letter-spacing:0px;word-spacing:0px;text-anchor:end;fill:#000000;fill-opacity:1;stroke:none;font-family:Droid Serif;-inkscape-font-specification:Droid Serif Italic"
       x="315.28238"
       y="953.41541"
       id="text5524"
       sodipodi:linespacing="125%"><tspan
         sodipodi:role="line"
         id="tspan5526"
         x="315.28238"
         y="953.41541">ε</tspan></text>
    <path
       inkscape:connector-curvature="0"
       id="path5528"
       d="m 1031.794,867.51168 c 0,0 44.9169,-39.73422 83.7874,-0.86379"
       style="fill:none;stroke:#000000;stroke-width:1.50000000000000000;stroke-linecap:butt;stroke-linejoin:miter;stroke-opacity:1;marker-start:none;marker-mid:none;marker-end:url(#Arrow2Lend);stroke-miterlimit:4;stroke-dasharray:none" />
    <g
       id="g5534"
       transform="translate(15.80117,54.800349)"
       style="stroke-width:1.5;stroke-miterlimit:4;stroke-dasharray:none">
      <path
         inkscape:connector-curvature="0"
         id="path5530"
         d="m 1081.0299,775.08643 -39.3023,39.30233"
         style="fill:none;stroke:#000000;stroke-width:1.5;stroke-linecap:butt;stroke-linejoin:miter;stroke-opacity:1;stroke-miterlimit:4;stroke-dasharray:none" />
      <path
         style="fill:none;stroke:#000000;stroke-width:1.5;stroke-linecap:butt;stroke-linejoin:miter;stroke-opacity:1;stroke-miterlimit:4;stroke-dasharray:none"
         d="m 1041.7276,775.08643 39.3023,39.30233"
         id="path5532"
         inkscape:connector-curvature="0" />
    </g>
  </g>
</svg>
